{
  "issues": [
    {
      "title": "Dependencies issue in pom.xml",
      "description": "Remove redundant dependencies in pom.xml",
      "id": 1
    },
    {
      "title": "Issue in Controller",
      "description": "Use appropriate annotation for Controller class",
      "id": 2
    },
    {
      "title": "Test issue 03",
      "description": "test",
      "id": 3
    },
    {
      "title": "Test issue 04",
      "description": "Test issue 04",
      "id": 4
    }
  ]
}